{
  "$schema": "../../node_modules/ng-packagr/ng-package.schema.json",
  "dest": "../../dist/a2s-comm",
  "allowedNonPeerDependencies": [
    "html2canvas"
  ],
  "lib": {
    "entryFile": "src/projects.ts"
  }
}
